Armin/Digital_asynchron_PLL/simulation/qsim/Digital_async_PLL.msim.vcd
$comment
	File created using the following command:
		vcd file Digital_async_PLL.msim.vcd -direction
$end
$date
	Wed Oct 27 10:32:58 2021
$end
$version
	ModelSim Version 2020.1
$end
$timescale
	1ps
$end

$scope module Digital_async_PLL_vlg_vec_tst $end
$var reg 1 ! fdiv $end
$var reg 1 " fref $end
$var wire 1 # adder_out [1] $end
$var wire 1 $ adder_out [0] $end

$scope module i1 $end
$var wire 1 % gnd $end
$var wire 1 & vcc $end
$var wire 1 ' unknown $end
$var tri1 1 ( devclrn $end
$var tri1 1 ) devpor $end
$var tri1 1 * devoe $end
$var wire 1 + adder_out[1]~output_o $end
$var wire 1 , adder_out[0]~output_o $end
$var wire 1 - fdiv~input_o $end
$var wire 1 . pdff2~feeder_combout $end
$var wire 1 / fref~input_o $end
$var wire 1 0 pdff1~feeder_combout $end
$var wire 1 1 pdff1~q $end
$var wire 1 2 inst3~combout $end
$var wire 1 3 pdff2~q $end
$var wire 1 4 inst4|sum [1] $end
$var wire 1 5 inst4|sum [0] $end
$upscope $end
$upscope $end
$enddefinitions $end
#0
$dumpvars
0!
0"
0$
0#
0%
1&
x'
1(
1)
1*
0+
0,
0-
1.
0/
10
01
02
03
05
04
$end
#5000
1!
1-
13
15
14
1+
1,
1$
1#
#10000
1"
0!
1/
0-
11
12
05
04
0+
0,
0$
0#
01
03
02
#15000
1!
1-
13
15
14
1+
1,
1$
1#
#20000
0"
0!
0/
0-
#25000
1!
1-
#30000
1"
0!
1/
0-
11
12
05
04
0+
0,
0$
0#
01
03
02
#35000
1!
1-
13
15
14
1+
1,
1$
1#
#40000
0"
0!
0/
0-
#45000
1!
1-
#50000
1"
0!
1/
0-
11
12
05
04
0+
0,
0$
0#
01
03
02
#55000
1!
1-
13
15
14
1+
1,
1$
1#
#60000
0"
0!
0/
0-
#65000
1!
1-
#70000
1"
0!
1/
0-
11
12
05
04
0+
0,
0$
0#
01
03
02
#75000
1!
1-
13
15
14
1+
1,
1$
1#
#80000
0"
0!
0/
0-
#85000
1!
1-
#90000
1"
0!
1/
0-
11
12
05
04
0+
0,
0$
0#
01
03
02
#95000
1!
1-
13
15
14
1+
1,
1$
1#
#100000
0"
0!
0/
0-
#105000
1!
1-
#110000
1"
0!
1/
0-
11
12
05
04
0+
0,
0$
0#
01
03
02
#115000
1!
1-
13
15
14
1+
1,
1$
1#
#120000
0"
0!
0/
0-
#125000
1!
1-
#130000
1"
0!
1/
0-
11
12
05
04
0+
0,
0$
0#
01
03
02
#135000
1!
1-
13
15
14
1+
1,
1$
1#
#140000
0"
0!
0/
0-
#145000
1!
1-
#150000
1"
0!
1/
0-
11
12
05
04
0+
0,
0$
0#
01
03
02
#155000
1!
1-
13
15
14
1+
1,
1$
1#
#160000
0"
0!
0/
0-
#165000
1!
1-
#170000
1"
0!
1/
0-
11
12
05
04
0+
0,
0$
0#
01
03
02
#175000
1!
1-
13
15
14
1+
1,
1$
1#
#180000
0"
0!
0/
0-
#185000
1!
1-
#190000
1"
0!
1/
0-
11
12
05
04
0+
0,
0$
0#
01
03
02
#195000
1!
1-
13
15
14
1+
1,
1$
1#
#200000
0"
0!
0/
0-
#205000
1!
1-
#210000
1"
0!
1/
0-
11
12
05
04
0+
0,
0$
0#
01
03
02
#215000
1!
1-
13
15
14
1+
1,
1$
1#
#220000
0"
0!
0/
0-
#225000
1!
1-
#230000
1"
0!
1/
0-
11
12
05
04
0+
0,
0$
0#
01
03
02
#235000
1!
1-
13
15
14
1+
1,
1$
1#
#240000
0"
0!
0/
0-
#245000
1!
1-
#250000
1"
0!
1/
0-
11
12
05
04
0+
0,
0$
0#
01
03
02
#255000
1!
1-
13
15
14
1+
1,
1$
1#
#260000
0"
0!
0/
0-
#265000
1!
1-
#270000
1"
0!
1/
0-
11
12
05
04
0+
0,
0$
0#
01
03
02
#275000
1!
1-
13
15
14
1+
1,
1$
1#
#280000
0"
0!
0/
0-
#285000
1!
1-
#290000
1"
0!
1/
0-
11
12
05
04
0+
0,
0$
0#
01
03
02
#295000
1!
1-
13
15
14
1+
1,
1$
1#
#300000
0"
0!
0/
0-
#305000
1!
1-
#310000
1"
0!
1/
0-
11
12
05
04
0+
0,
0$
0#
01
03
02
#315000
1!
1-
13
15
14
1+
1,
1$
1#
#320000
0"
0!
0/
0-
#325000
1!
1-
#330000
1"
0!
1/
0-
11
12
05
04
0+
0,
0$
0#
01
03
02
#335000
1!
1-
13
15
14
1+
1,
1$
1#
#340000
0"
0!
0/
0-
#345000
1!
1-
#350000
1"
0!
1/
0-
11
12
05
04
0+
0,
0$
0#
01
03
02
#355000
1!
1-
13
15
14
1+
1,
1$
1#
#360000
0"
0!
0/
0-
#365000
1!
1-
#370000
1"
0!
1/
0-
11
12
05
04
0+
0,
0$
0#
01
03
02
#375000
1!
1-
13
15
14
1+
1,
1$
1#
#380000
0"
0!
0/
0-
#385000
1!
1-
#390000
1"
0!
1/
0-
11
12
05
04
0+
0,
0$
0#
01
03
02
#395000
1!
1-
13
15
14
1+
1,
1$
1#
#400000
0"
0!
0/
0-
#405000
1!
1-
#410000
1"
0!
1/
0-
11
12
05
04
0+
0,
0$
0#
01
03
02
#415000
1!
1-
13
15
14
1+
1,
1$
1#
#420000
0"
0!
0/
0-
#425000
1!
1-
#430000
1"
0!
1/
0-
11
12
05
04
0+
0,
0$
0#
01
03
02
#435000
1!
1-
13
15
14
1+
1,
1$
1#
#440000
0"
0!
0/
0-
#445000
1!
1-
#450000
1"
0!
1/
0-
11
12
05
04
0+
0,
0$
0#
01
03
02
#455000
1!
1-
13
15
14
1+
1,
1$
1#
#460000
0"
0!
0/
0-
#465000
1!
1-
#470000
1"
0!
1/
0-
11
12
05
04
0+
0,
0$
0#
01
03
02
#475000
1!
1-
13
15
14
1+
1,
1$
1#
#480000
0"
0!
0/
0-
#485000
1!
1-
#490000
1"
0!
1/
0-
11
12
05
04
0+
0,
0$
0#
01
03
02
#495000
1!
1-
13
15
14
1+
1,
1$
1#
#500000
0"
0!
0/
0-
#505000
1!
1-
#510000
1"
0!
1/
0-
11
12
05
04
0+
0,
0$
0#
01
03
02
#515000
1!
1-
13
15
14
1+
1,
1$
1#
#520000
0"
0!
0/
0-
#525000
1!
1-
#530000
1"
0!
1/
0-
11
12
05
04
0+
0,
0$
0#
01
03
02
#535000
1!
1-
13
15
14
1+
1,
1$
1#
#540000
0"
0!
0/
0-
#545000
1!
1-
#550000
1"
0!
1/
0-
11
12
05
04
0+
0,
0$
0#
01
03
02
#555000
1!
1-
13
15
14
1+
1,
1$
1#
#560000
0"
0!
0/
0-
#565000
1!
1-
#570000
1"
0!
1/
0-
11
12
05
04
0+
0,
0$
0#
01
03
02
#575000
1!
1-
13
15
14
1+
1,
1$
1#
#580000
0"
0!
0/
0-
#585000
1!
1-
#590000
1"
0!
1/
0-
11
12
05
04
0+
0,
0$
0#
01
03
02
#595000
1!
1-
13
15
14
1+
1,
1$
1#
#600000
0"
0!
0/
0-
#605000
1!
1-
#610000
1"
0!
1/
0-
11
12
05
04
0+
0,
0$
0#
01
03
02
#615000
1!
1-
13
15
14
1+
1,
1$
1#
#620000
0"
0!
0/
0-
#625000
1!
1-
#630000
1"
0!
1/
0-
11
12
05
04
0+
0,
0$
0#
01
03
02
#635000
1!
1-
13
15
14
1+
1,
1$
1#
#640000
0"
0!
0/
0-
#645000
1!
1-
#650000
1"
0!
1/
0-
11
12
05
04
0+
0,
0$
0#
01
03
02
#655000
1!
1-
13
15
14
1+
1,
1$
1#
#660000
0"
0!
0/
0-
#665000
1!
1-
#670000
1"
0!
1/
0-
11
12
05
04
0+
0,
0$
0#
01
03
02
#675000
1!
1-
13
15
14
1+
1,
1$
1#
#680000
0"
0!
0/
0-
#685000
1!
1-
#690000
1"
0!
1/
0-
11
12
05
04
0+
0,
0$
0#
01
03
02
#695000
1!
1-
13
15
14
1+
1,
1$
1#
#700000
0"
0!
0/
0-
#705000
1!
1-
#710000
1"
0!
1/
0-
11
12
05
04
0+
0,
0$
0#
01
03
02
#715000
1!
1-
13
15
14
1+
1,
1$
1#
#720000
0"
0!
0/
0-
#725000
1!
1-
#730000
1"
0!
1/
0-
11
12
05
04
0+
0,
0$
0#
01
03
02
#735000
1!
1-
13
15
14
1+
1,
1$
1#
#740000
0"
0!
0/
0-
#745000
1!
1-
#750000
1"
0!
1/
0-
11
12
05
04
0+
0,
0$
0#
01
03
02
#755000
1!
1-
13
15
14
1+
1,
1$
1#
#760000
0"
0!
0/
0-
#765000
1!
1-
#770000
1"
0!
1/
0-
11
12
05
04
0+
0,
0$
0#
01
03
02
#775000
1!
1-
13
15
14
1+
1,
1$
1#
#780000
0"
0!
0/
0-
#785000
1!
1-
#790000
1"
0!
1/
0-
11
12
05
04
0+
0,
0$
0#
01
03
02
#795000
1!
1-
13
15
14
1+
1,
1$
1#
#800000
0"
0!
0/
0-
#805000
1!
1-
#810000
1"
0!
1/
0-
11
12
05
04
0+
0,
0$
0#
01
03
02
#815000
1!
1-
13
15
14
1+
1,
1$
1#
#820000
0"
0!
0/
0-
#825000
1!
1-
#830000
1"
0!
1/
0-
11
12
05
04
0+
0,
0$
0#
01
03
02
#835000
1!
1-
13
15
14
1+
1,
1$
1#
#840000
0"
0!
0/
0-
#845000
1!
1-
#850000
1"
0!
1/
0-
11
12
05
04
0+
0,
0$
0#
01
03
02
#855000
1!
1-
13
15
14
1+
1,
1$
1#
#860000
0"
0!
0/
0-
#865000
1!
1-
#870000
1"
0!
1/
0-
11
12
05
04
0+
0,
0$
0#
01
03
02
#875000
1!
1-
13
15
14
1+
1,
1$
1#
#880000
0"
0!
0/
0-
#885000
1!
1-
#890000
1"
0!
1/
0-
11
12
05
04
0+
0,
0$
0#
01
03
02
#895000
1!
1-
13
15
14
1+
1,
1$
1#
#900000
0"
0!
0/
0-
#905000
1!
1-
#910000
1"
0!
1/
0-
11
12
05
04
0+
0,
0$
0#
01
03
02
#915000
1!
1-
13
15
14
1+
1,
1$
1#
#920000
0"
0!
0/
0-
#925000
1!
1-
#930000
1"
0!
1/
0-
11
12
05
04
0+
0,
0$
0#
01
03
02
#935000
1!
1-
13
15
14
1+
1,
1$
1#
#940000
0"
0!
0/
0-
#945000
1!
1-
#950000
1"
0!
1/
0-
11
12
05
04
0+
0,
0$
0#
01
03
02
#955000
1!
1-
13
15
14
1+
1,
1$
1#
#960000
0"
0!
0/
0-
#965000
1!
1-
#970000
1"
0!
1/
0-
11
12
05
04
0+
0,
0$
0#
01
03
02
#975000
1!
1-
13
15
14
1+
1,
1$
1#
#980000
0"
0!
0/
0-
#985000
1!
1-
#990000
1"
0!
1/
0-
11
12
05
04
0+
0,
0$
0#
01
03
02
#995000
1!
1-
13
15
14
1+
1,
1$
1#
